Final Project QTM 150
…
#I am using private_room_neighbourhood as the dataset for my graph. However, I am not using the summarise function since I would only get a small number of datapoints. Instead, I am plotting all observations in each neighbourhood to have a better likelihood of potentially observing a trend.
private_room_neighbourhood<- 
  airbnbn%>%
  filter(neighbourhood == "Williamsburg" | neighbourhood == "Bedford-Stuyvesant" | neighbourhood == "Harlem" | neighbourhood == "Bushwick" | neighbourhood == "Upper West Side" | neighbourhood == "Hell's Kitchen" | neighbourhood == "East Village" | neighbourhood == "Upper East Side" | neighbourhood == "Crown Heights" | neighbourhood == "Midtown")%>%
  filter(room_type == "Private room")%>% 
  group_by(neighbourhood)

private_room_neighbourhood

## # A tibble: 10,932 x 16
## # Groups:   neighbourhood [10]
##       id name  host_id host_name neighbourhood_g neighbourhood latitude
##    <int> <fct>   <int> <fct>     <fct>            <fct>            <dbl>
##  1  3647 THE     4632 Elisabeth Manhattan        Harlem            40.8
##  2  5121 Blis    7356 Garon     Brooklyn         Bedford-Stuy     40.7
##  3  5203 Cozy    7490 MaryEllen Manhattan        Upper West S     40.8
##  4  5441 Cent    7989 Kate      Manhattan        Hell's Kitch     40.8
##  5  6021 Wond   11528 Claudio   Manhattan        Upper West S     40.8
##  6  9668 fron   32294 Ssameer  Manhattan        Harlem            40.8
##  7  9704 Spac   32045 Teri      Manhattan        Harlem            40.8
##  8  9783 back   32294 Ssameer  Manhattan        Harlem            40.8
##  9 10452 Larg   35935 Angela    Brooklyn         Bedford-Stuy     40.7
## 10 11452 Clea    7355 Vt        Brooklyn         Bedford-Stuy     40.7
## #  with 10,922 more rows, and 9 more variables: longitude <dbl>,
## #   room_type <fct>, price <int>, minimum_nights <int>,
## #   number_of_reviews <int>, last_review <fct>, reviews_per_month <dbl>,
## #   calculated_host_listings_count <int>, availability_365 <int>
…
#GRAPH

#For my graph, I am looking at the availability for Upper East Side and Midtown because they are similar in terms of their variability in the data. I did not choose to look at every neighbourhood since it would become repetitive.  

private_room_two_neighbourhoods <- 
  airbnbn%>%
  filter(neighbourhood == "Upper East Side" |neighbourhood == "Midtown")%>%
  filter(room_type == "Private room")%>% 
  group_by(neighbourhood)

private_room_two_neighbourhoods 

## # A tibble: 861 x 16
## # Groups:   neighbourhood [2]
##        id name  host_id host_name neighbourhood_g neighbourhood latitude
##     <int> <fct>   <int> <fct>     <fct>            <fct>            <dbl>
##  1  18152 Manh   69942 Victoria  Manhattan        Upper East S     40.8
##  2  47199 NEW   212722 Teresa    Manhattan        Upper East S     40.8
##  3  51438 1 Be  236421 Jessica   Manhattan        Upper East S     40.8
##  4 233662 Larg 1223568 Tiffany   Manhattan        Midtown           40.8
##  5 299062 1 Bd  236421 Jessica   Manhattan        Upper East S     40.8
##  6 324517 Cent 1660724 S         Manhattan        Upper East S     40.8
##  7 352864 Cute 1786901 Shai      Manhattan        Upper East S     40.8
##  8 360400 Beau 1386983 Candice   Manhattan        Midtown           40.7
##  9 386744 Grea 1935291 Cristina  Manhattan        Upper East S     40.8
## 10 403264 Luxu 1386983 Candice   Manhattan        Midtown           40.7
## #  with 851 more rows, and 9 more variables: longitude <dbl>,
## #   room_type <fct>, price <int>, minimum_nights <int>,
## #   number_of_reviews <int>, last_review <fct>, reviews_per_month <dbl>,
## #   calculated_host_listings_count <int>, availability_365 <int>
…
